#-------------------------------------------------------------------
# Summary:  Builds the post-treatment for cd2d
#
# Description:
#     The function build_pstd_cd2d builds the post-treatment used by
#     cd2d during the resolution.
#
# Input:
#     sim_dir    Directory for the output files.
#
# Output:
#
# Notes:
#-------------------------------------------------------------------
function build_pstd_cd2d (sim_dir)

   h_pst_sim = cd2d_pst_sim(sim_dir+'solution.cd2d.pst.sim', 'w', 'noop', 'write')
 
   build_pstd_cd2d = h_pst_sim
endfunction

#-------------------------------------------------------------------
# Summary:  Builds the probes for cd2d
#
# Description:
#     The function build_probes_cd2d builds all the probes for the cd2d
#     part.
#
# Input:
#     sim_dir    Directory for the output files.
#     h_grid     Handle on the grid 
#
# Output:
#
#Notes:
#-------------------------------------------------------------------
function build_probes_cd2d(sim_dir, h_grid)

   h_pst1 = probe_on_nodes (h_grid, 1, 3, 34, 38, 41, sim_dir+'solution.cd2d.pst.1.prb', 'w', 'noop', 'write')
   h_pst2 = probe_on_nodes (h_grid, 1, 3, 34, 38, 41, sim_dir+'solution.cd2d.pst.2.prb', 'w', 'max', 'nowrite')
   h_pst  = post_compose(h_pst1, h_pst2)

   build_probes_cd2d = h_pst
endfunction
